Stash Marker Genes in a SingleCellExperiment Object — stash_marker_features • chevreulProcess
…
    Value

    a SingleCellExperiment object with marker genes

    Examples

data("small_example_dataset")
small_example_dataset <- 
find_all_markers(small_example_dataset, "gene_snn_res.1")
#> stashing markers for gene_snn_res.1
stash_marker_features(small_example_dataset, "gene_snn_res.1")
#> stashing markers for gene_snn_res.1
#> # A tibble: 285 × 4
#> # Groups:   Cluster [5]
#>    Gene.Name Average.Log.Fold.Change Adjusted.pvalue Cluster
#>    <chr>                       <dbl>           <dbl> <chr>  
#>  1 Gene_0977                    1.99           0.313 1      
#>  2 Gene_0373                    1.99           0.270 1      
#>  3 Gene_0827                    1.98           0.270 1      
#>  4 Gene_0948                    1.85           0.270 1      
#>  5 Gene_0633                    1.82           0.318 1      
#>  6 Gene_0262                    1.82           0.270 1      
#>  7 Gene_0784                    1.69           0.270 1      
#>  8 Gene_0750                    1.67           0.342 1      
#>  9 Gene_0329                    1.62           0.361 1      
#> 10 Gene_0912                    1.57           0.342 1      
#> # ℹ 275 more rows
…
